%YAML 1.1
%TAG !u! tag:unity3d.com,2011:
--- !u!1045 &1
EditorBuildSettings:
  m_ObjectHideFlags: 0
  serializedVersion: 2
  m_Scenes:
  - enabled: 1
    path: Assets/Mirror/Examples/Room/Scenes/OfflineScene.unity
    guid: 9e6f14982412b2545a0911ebaaa46a23
  - enabled: 1
    path: Assets/Mirror/Examples/Room/Scenes/RoomScene.unity
    guid: 48478f4d522f96945b8396f376299d3a
  - enabled: 1
    path: Assets/Mirror/Examples/Room/Scenes/OnlineScene.unity
    guid: d7a6763559b31854586c9e49916273ef
  - enabled: 1
    path: Assets/Scenes/Offline Scene.unity
    guid: c60bfb4835eb88b40878820fb93d97e9
  - enabled: 1
    path: Assets/Scenes/Lobby Scene.unity
    guid: a0029f1eb9630f04ba3a7de40ab3b838
  - enabled: 1
    path: Assets/Scenes/Online Scene.unity
    guid: d1c3109bdb54ad54c8a2b2838528e640
  m_configObjects: {}
