%YAML 1.1
%TAG !u! tag:unity3d.com,2011:
--- !u!21 &2100000
Material:
  serializedVersion: 6
  m_ObjectHideFlags: 0
  m_CorrespondingSourceObject: {fileID: 0}
  m_PrefabInstance: {fileID: 0}
  m_PrefabAsset: {fileID: 0}
  m_Name: Time Bomb Mat
  m_Shader: {fileID: -6465566751694194690, guid: ea047579a2ca85847aa66cfb9163d09a, type: 3}
  m_ShaderKeywords: 
  m_LightmapFlags: 4
  m_EnableInstancingVariants: 0
  m_DoubleSidedGI: 0
  m_CustomRenderQueue: -1
  stringTagMap: {}
  disabledShaderPasses: []
  m_SavedProperties:
    serializedVersion: 3
    m_TexEnvs:
    - _SampleTexture2D_4bb6c70b7da54a18bf71993b2c24e57f_Texture_1:
        m_Texture: {fileID: 2800000, guid: 4ca12bae2c4cf2b419098a2a2026123e, type: 3}
        m_Scale: {x: 1, y: 1}
        m_Offset: {x: 0, y: 0}
    - unity_Lightmaps:
        m_Texture: {fileID: 0}
        m_Scale: {x: 1, y: 1}
        m_Offset: {x: 0, y: 0}
    - unity_LightmapsInd:
        m_Texture: {fileID: 0}
        m_Scale: {x: 1, y: 1}
        m_Offset: {x: 0, y: 0}
    - unity_ShadowMasks:
        m_Texture: {fileID: 0}
        m_Scale: {x: 1, y: 1}
        m_Offset: {x: 0, y: 0}
    m_Floats:
    - Vector1_a99c615e7515497ea2c22c307b3eee2a: 2.16
    m_Colors:
    - Color_ae339b70d04a40f1a4cf7a95f19a9771: {r: 4.5949926, g: 0.20698164, b: 0.20698164, a: 0}
  m_BuildTextureStacks: []
